[
  {
    "id": 0,
    "name": "B\u00edl\u00e1",
    "image": "/static/colors/00_bila.png",
    "image_inner": "/static/colors/placeholder.png",
    "image_outer": "/static/colors/placeholder.png",
    "inner_ratio": "0",
    "outer_ratio": "0"
  },
  {
    "id": "1",
    "name": "Zlat\u00fd dub",
    "image": "/static/colors/01_zlaty_dub.png",
    "image_inner":
      "http://konfigadmin.test/media/show/photos/WuWB7eZV5E6G9lNURPESC2ldyMEMe0b7EQGkUllR.png",
    "image_outer":
      "http://konfigadmin.test/media/show/photos/eTnGnwuCOuVOrEuteJjjsmAsDY5SkepUNdhep44v.png",
    "inner_ratio": "31",
    "outer_ratio": "22"
  },
  {
    "id": 2,
    "name": "Tmav\u00fd dub",
    "image": "/static/colors/02_tmavy_dub.png",
    "image_inner": "/static/colors/placeholder.png",
    "image_outer": "/static/colors/placeholder.png",
    "inner_ratio": "31",
    "outer_ratio": "22"
  },
  {
    "id": 3,
    "name": "O\u0159ech",
    "image": "/static/colors/03_orech.png",
    "image_inner": "/static/colors/placeholder.png",
    "image_outer": "/static/colors/placeholder.png",
    "inner_ratio": "31",
    "outer_ratio": "22"
  },
  {
    "id": 4,
    "name": "\u010cokol\u00e1dov\u00e1",
    "image": "/static/colors/04_cokoladova.png",
    "image_inner": "/static/colors/placeholder.png",
    "image_outer": "/static/colors/placeholder.png",
    "inner_ratio": "31",
    "outer_ratio": "22"
  },
  {
    "id": 5,
    "name": "Mahagon",
    "image": "/static/colors/05_mahagon.png",
    "image_inner": "/static/colors/placeholder.png",
    "image_outer": "/static/colors/placeholder.png",
    "inner_ratio": "31",
    "outer_ratio": "22"
  },
  {
    "id": 6,
    "name": "Sv\u011btle \u0161ed\u00e1",
    "image": "/static/colors/06_svetle_seda.png",
    "image_inner": "/static/colors/placeholder.png",
    "image_outer": "/static/colors/placeholder.png",
    "inner_ratio": "31",
    "outer_ratio": "22"
  },
  {
    "id": 7,
    "name": "Antracit",
    "image": "/static/colors/07_antracit.png",
    "image_inner": "/static/colors/placeholder.png",
    "image_outer": "/static/colors/placeholder.png",
    "inner_ratio": "31",
    "outer_ratio": "22"
  },
  {
    "id": 8,
    "name": "Kr\u00e9mov\u00e1",
    "image": "/static/colors/08_kremova.png",
    "image_inner": "/static/colors/placeholder.png",
    "image_outer": "/static/colors/placeholder.png",
    "inner_ratio": "40",
    "outer_ratio": "30"
  },
  {
    "id": 9,
    "name": "\u010cerven\u00e1",
    "image": "/static/colors/09_cervena.png",
    "image_inner": "/static/colors/placeholder.png",
    "image_outer": "/static/colors/placeholder.png",
    "inner_ratio": "40",
    "outer_ratio": "30"
  },
  {
    "id": 10,
    "name": "Sv\u011btle modr\u00e1",
    "image": "/static/colors/10_svetle_modra.png",
    "image_inner": "/static/colors/placeholder.png",
    "image_outer": "/static/colors/placeholder.png",
    "inner_ratio": "40",
    "outer_ratio": "30"
  },
  {
    "id": 11,
    "name": "Tmav\u011b modr\u00e1",
    "image": "/static/colors/11_tmave_modra.png",
    "image_inner": "/static/colors/placeholder.png",
    "image_outer": "/static/colors/placeholder.png",
    "inner_ratio": "40",
    "outer_ratio": "30"
  },
  {
    "id": 12,
    "name": "Zelen\u00e1",
    "image": "/static/colors/12_zelena.png",
    "image_inner": "/static/colors/placeholder.png",
    "image_outer": "/static/colors/placeholder.png",
    "inner_ratio": "40",
    "outer_ratio": "30"
  },
  {
    "id": 13,
    "name": "\u0160ed\u00e1 hladk\u00e1",
    "image": "/static/colors/13_seda_hladka.png",
    "image_inner": "/static/colors/placeholder.png",
    "image_outer": "/static/colors/placeholder.png",
    "inner_ratio": "40",
    "outer_ratio": "30"
  },
  {
    "id": 14,
    "name": "Oregon",
    "image": "/static/colors/14_oregon.png",
    "image_inner": "/static/colors/placeholder.png",
    "image_outer": "/static/colors/placeholder.png",
    "inner_ratio": "40",
    "outer_ratio": "30"
  },
  {
    "id": 15,
    "name": "Winchester",
    "image": "/static/colors/15_winchester.png",
    "image_inner": "/static/colors/placeholder.png",
    "image_outer": "/static/colors/placeholder.png",
    "inner_ratio": "40",
    "outer_ratio": "30"
  },
  {
    "id": 16,
    "name": "T\u0159e\u0161e\u0148",
    "image": "/static/colors/16_tresen.png",
    "image_inner": "/static/colors/placeholder.png",
    "image_outer": "/static/colors/placeholder.png",
    "inner_ratio": "40",
    "outer_ratio": "30"
  },
  {
    "id": 17,
    "name": "Antracit hladk\u00fd",
    "image": "/static/colors/17_antracit_hladky.png",
    "image_inner": "/static/colors/placeholder.png",
    "image_outer": "/static/colors/placeholder.png",
    "inner_ratio": "40",
    "outer_ratio": "30"
  }
]
